outputWave_3_5v30phase4755ohm96_54nF500f.csv

#Digilent WaveForms Oscilloscope Acquisition
#Device Name: Discovery2
#Serial Number: SN:210321A2E2A9
#Date Time: 2018-11-27 11:22:59.680
#Sample rate: 800000Hz
#Samples: 8192
#Trigger: Source: Wavegen 1 Condition: Rising
#Channel 1: Range: 1 V/div Offset: 0 V

Time (s),Channel 1 (V)
-0.00012000000000000031,-1.409577437717795
-0.00011874999999999993,-1.4022730639150023
-0.00011749999999999955,-1.3913165032108128
-0.00011625000000000003,-1.3913165032108128
-0.00011499999999999965,-1.3840121294080201
-0.00011375000000000014,-1.3767077556052274
-0.00011249999999999975,-1.3767077556052274
-0.00011125000000000024,-1.3730555687038326
-0.00010999999999999985,-1.3657511949010384
-0.00010874999999999947,-1.3620990079996387
-0.00010749999999999996,-1.3547946341968493
-0.00010624999999999957,-1.3474902603940533
-0.00010500000000000006,-1.3401858865912639
-0.00010374999999999968,-1.3365336996898676
-0.00010250000000000016,-1.3292293258870749
-0.00010124999999999978,-1.3292293258870749
-0.00010000000000000026,-1.3255771389856796
-9.874999999999988e-05,-1.314620578281489
-9.7499999999999497e-05,-1.3109683913800894
-9.6249999999999981e-05,-1.3036640175773
-9.4999999999999599e-05,-1.2963596437745057
-9.3750000000000083e-05,-1.2927074568731109
-9.2499999999999701e-05,-1.2890552699717146
-9.1250000000000185e-05,-1.2817508961689252
-8.9999999999999802e-05,-1.2744465223661292
-8.8750000000000287e-05,-1.2707943354647344
-8.7499999999999904e-05,-1.2634899616619402
-8.6249999999999521e-05,-1.2561855878591459
-8.5000000000000006e-05,-1.2525334009577507
-8.3749999999999623e-05,-1.245229027154958
-8.2500000000000108e-05,-1.2342724664507689
-8.1249999999999725e-05,-1.2342724664507689
-8.000000000000021e-05,-1.2306202795493741
-7.8749999999999827e-05,-1.2196637188451835
-7.7500000000000312e-05,-1.2123593450423942
-7.6249999999999929e-05,-1.2123593450423908
-7.4999999999999546e-05,-1.2087071581409878
-7.3750000000000031e-05,-1.1940984105354091
-7.2499999999999648e-05,-1.1867940367326164
-7.1250000000000133e-05,-1.1831418498312201
-6.999999999999975e-05,-1.1794896629298237
-6.8750000000000235e-05,-1.1721852891270339
-6.7499999999999852e-05,-1.1721852891270306
-6.6249999999999469e-05,-1.1575765415214436
-6.4999999999999954e-05,-1.1539243546200488
-6.3749999999999571e-05,-1.1502721677186492
-6.2500000000000056e-05,-1.1429677939158598
-6.1249999999999673e-05,-1.1356634201130671
-6.0000000000000157e-05,-1.124706859408878
-5.8749999999999775e-05,-1.1210546725074817
-5.7500000000000259e-05,-1.1174024856060869
-5.6249999999999876e-05,-1.1064459249018963
-5.4999999999999494e-05,-1.0991415510991032
-5.3749999999999978e-05,-1.0991415510991032
-5.2499999999999596e-05,-1.0954893641977019
-5.125000000000008e-05,-1.0845328034935178
-4.9999999999999697e-05,-1.0772284296907251
-4.8750000000000182e-05,-1.0699240558879357
-4.7499999999999799e-05,-1.066271868986536
-4.6250000000000284e-05,-1.0626196820851412
-4.4999999999999901e-05,-1.055315308282347
-4.3749999999999518e-05,-1.0480109344795494
-4.2500000000000003e-05,-1.0370543737753652
-4.124999999999962e-05,-1.0370543737753652
-4.0000000000000105e-05,-1.0297499999725725
-3.8749999999999722e-05,-1.0260978130711758
-3.7500000000000207e-05,-1.0187934392683864
-3.6249999999999824e-05,-1.0114890654655904
-3.5000000000000309e-05,-1.004184691662801
-3.3749999999999926e-05,-0.99688031786000497
-3.2499999999999543e-05,-0.98592375715581426
-3.1250000000000028e-05,-0.98227157025441958
-2.9999999999999645e-05,-0.97861938335302312
-2.875000000000013e-05,-0.96766282264883408
-2.7499999999999747e-05,-0.96401063574743773
-2.6250000000000231e-05,-0.96035844884604293
-2.4999999999999849e-05,-0.94574970124045588
-2.3749999999999466e-05,-0.94209751433905775
-2.2499999999999951e-05,-0.93844532743766307
-2.1249999999999568e-05,-0.92748876673347069
-2.0000000000000052e-05,-0.92018439293068122
-1.874999999999967e-05,-0.92018439293068122
-1.7500000000000154e-05,-0.91288001912788852
-1.6249999999999772e-05,-0.89827127152230302
-1.5000000000000256e-05,-0.89461908462090833
-1.3749999999999873e-05,-0.88731471081811386
-1.2499999999999491e-05,-0.88366252391671418
-1.1249999999999975e-05,-0.87635815011392482
-9.9999999999995925e-06,-0.86905377631113034
-8.7500000000000772e-06,-0.86540158940973566
-7.4999999999996944e-06,-0.85809721560694296
-6.250000000000179e-06,-0.84714065490275381
-4.9999999999997963e-06,-0.83983628109996111
-3.7500000000002809e-06,-0.83618409419856643
-2.4999999999998981e-06,-0.82887972039577196
-1.2499999999995154e-06,-0.82157534659297426
0,-0.81061878588879011
1.2500000000003827e-06,-0.81061878588879011
2.4999999999998981e-06,-0.80331441208599741
3.7500000000002809e-06,-0.79235785138180825
4.9999999999997963e-06,-0.78870566448041357
6.250000000000179e-06,-0.77774910377622286
7.4999999999996944e-06,-0.77409691687482807
8.7500000000000772e-06,-0.76314035617063736
1.000000000000046e-05,-0.75583598236784288
1.1249999999999975e-05,-0.7521837954664482
1.2500000000000358e-05,-0.74487942166365551
1.3749999999999873e-05,-0.7375750478608627
1.5000000000000256e-05,-0.73027067405807
1.6249999999999772e-05,-0.72296630025528064
1.7500000000000154e-05,-0.71200973955108815
1.8750000000000537e-05,-0.70470536574829212
2.0000000000000052e-05,-0.69740099194550265
2.1250000000000435e-05,-0.69009661814270662
2.2499999999999951e-05,-0.68279224433991725
2.3750000000000333e-05,-0.67914005743852079
2.4999999999999849e-05,-0.6718356836357281
2.6250000000000231e-05,-0.66087912293153894
2.7499999999999747e-05,-0.65722693603014426
2.875000000000013e-05,-0.6499225622273499
3.0000000000000512e-05,-0.64261818842455209
3.1250000000000028e-05,-0.63166162772036805
3.2500000000000411e-05,-0.62800944081897003
3.3749999999999926e-05,-0.62435725391757524
3.5000000000000309e-05,-0.61705288011478254
3.6249999999999824e-05,-0.60609631941059339
3.7500000000000207e-05,-0.60244413250919704
3.8749999999999722e-05,-0.59513975870640767
4.0000000000000105e-05,-0.58053101110081884
4.1250000000000488e-05,-0.57322663729802614
4.2500000000000003e-05,-0.57322663729802614
4.3750000000000386e-05,-0.56592226349523334
4.4999999999999901e-05,-0.55496570279104429
4.6250000000000284e-05,-0.54766132898825148
4.7499999999999799e-05,-0.54035695518546212
4.8750000000000182e-05,-0.52940039448126963
4.9999999999999697e-05,-0.52574820757987495
5.125000000000008e-05,-0.51844383377708059
5.2500000000000463e-05,-0.51479164687568091
5.3749999999999978e-05,-0.50748727307289143
5.5000000000000361e-05,-0.49287852546730598
5.6249999999999876e-05,-0.48557415166451323
5.7500000000000259e-05,-0.48192196476311688
5.8749999999999775e-05,-0.47461759096032746
6.0000000000000157e-05,-0.47096540405892773
6.1249999999999673e-05,-0.46366103025613836
6.2500000000000056e-05,-0.45635665645334228
6.3750000000000438e-05,-0.44174790884775345
6.4999999999999954e-05,-0.43444353504496402
6.6250000000000336e-05,-0.43444353504496402
6.7499999999999852e-05,-0.42348697434077492
6.8750000000000235e-05,-0.41618260053798223
6.999999999999975e-05,-0.40887822673519281
7.1250000000000133e-05,-0.40157385293239672
7.2500000000000515e-05,-0.39061729222820263
7.3750000000000031e-05,-0.37966073152401852
7.5000000000000414e-05,-0.37235635772122411
7.6249999999999929e-05,-0.36870417081982937
7.7500000000000312e-05,-0.35774761011564027
7.8749999999999827e-05,-0.35409542321424392
8.000000000000021e-05,-0.34679104941145117
8.1249999999999725e-05,-0.33583448870726706
8.2500000000000108e-05,-0.33218230180586572
8.3750000000000491e-05,-0.32487792800306964
8.5000000000000006e-05,-0.31757355420028022
8.6250000000000389e-05,-0.31392136729887554
8.7499999999999904e-05,-0.29566043279190202
8.8750000000000287e-05,-0.29566043279190202
8.9999999999999802e-05,-0.28470387208771786
9.1250000000000185e-05,-0.27739949828492017
9.2499999999999701e-05,-0.27374731138352543
9.3750000000000083e-05,-0.25913856377793831
9.5000000000000466e-05,-0.25183418997514223
9.6249999999999981e-05,-0.24452981617235281
9.7500000000000364e-05,-0.24087762927095646
9.874999999999988e-05,-0.22992106856676733
0.00010000000000000026,-0.22626888166537096
0.00010124999999999978,-0.21896450786258156
0.00010250000000000016,-0.21166013405978548
0.00010374999999999968,-0.19705138645420664
0.00010500000000000006,-0.19339919955280363
0.00010625000000000044,-0.18974701265140395
0.00010749999999999996,-0.18244263884861453
0.00010875000000000034,-0.16783389124302905
0.00010999999999999985,-0.16418170434163268
0.00011125000000000024,-0.15322514363744358
0.00011249999999999975,-0.14957295673604887
0.00011375000000000014,-0.13496420913046173
0.00011500000000000052,-0.13131202222906035
0.00011625000000000003,-0.12035546152487625
0.00011750000000000042,-0.11670327462347656
0.00011874999999999993,-0.10939890082068714
0.00012000000000000031,-0.1020945270178944
0.00012124999999999983,-0.091137966313705285
0.00012250000000000021,-0.091137966313705285
0.00012374999999999973,-0.080181405609521153
0.00012500000000000011,-0.076529218708119809
0.00012625000000000049,-0.065572658003927378
0.00012750000000000001,-0.058268284201137957
0.00012875000000000039,-0.047311723496945526
0.00012999999999999991,-0.040007349694156105
0.00013125000000000029,-0.036355162792759736
0.00013249999999999981,-0.025398602088575611
0.00013375000000000019,-0.018094228285777888
0.0001349999999999997,-0.010789854482988472
0.00013625000000000009,-0.0071376675815887792
0.00013750000000000047,-0.0034854806801874268
0.00013874999999999998,0.0074710800239967002
0.00014000000000000037,0.01477545382678944
0.00014124999999999988,0.029384201432374919
0.00014250000000000027,0.033036388333771288
0.00014374999999999978,0.040340762136560702
0.00014500000000000016,0.05129732284075314
0.00014624999999999968,0.062253883544937265
0.00014750000000000006,0.065906070446338616
0.00014875000000000044,0.073210444249134671
0.00014999999999999996,0.080514818051924092
0.00015125000000000034,0.087819191854716844
0.00015249999999999986,0.095123565657509582
0.00015375000000000024,0.10608012636169868
0.00015499999999999976,0.1133845001644881
0.00015625000000000014,0.1170366870658878
0.00015750000000000052,0.12434106086868552
0.00015875000000000004,0.13529762157286965
0.00016000000000000042,0.14260199537566737
0.00016124999999999994,0.1535585560798515
0.00016250000000000032,0.15721074298124788
0.00016374999999999983,0.16086292988264422
0.00016500000000000022,0.16816730368543698
0.00016624999999999973,0.18277605129101582
0.00016750000000000011,0.18642823819241883
0.0001687500000000005,0.20103698579800597
0.00017000000000000001,0.20468917269940068
0.00017125000000000039,0.21199354650219673
0.00017249999999999991,0.21929792030498615
0.00017375000000000029,0.22660229410777888
0.00017499999999999981,0.2339066679105683
0.00017625000000000019,0.24121104171336438
0.00017749999999999971,0.24486322861475907
0.00017875000000000009,0.25581978931894983
0.00018000000000000047,0.27042853692453533
0.00018124999999999999,0.27042853692453533
0.00018250000000000037,0.27408072382593168
0.00018374999999999989,0.28503728453012078
0.00018500000000000027,0.29234165833291353
0.00018624999999999978,0.29964603213570296
0.00018750000000000017,0.31060259283989539
0.00018874999999999968,0.31790696664268481
0.00019000000000000006,0.32521134044548089
0.00019125000000000045,0.33251571424827697
0.00019249999999999996,0.33982008805106634
0.00019375000000000035,0.35442883565665184
0.00019499999999999986,0.35442883565665184
0.00019625000000000024,0.36538539636084094
0.00019749999999999976,0.36903758326223562
0.00019875000000000014,0.37268977016363369
0.00020000000000000052,0.38364633086782779
0.00020125000000000004,0.39460289157201189
0.00020250000000000042,0.39825507847341329
0.00020374999999999994,0.4092116391775974
0.00020500000000000032,0.41651601298039015
0.00020624999999999984,0.4201681998817865
0.00020750000000000022,0.42747257368457925
0.00020874999999999973,0.43842913438876335
0.00021000000000000012,0.4457335081915611
0.0002112500000000005,0.44938569509296078
0.00021250000000000002,0.4566900688957502
0.0002137500000000004,0.46034225579715154
0.00021499999999999991,0.47129881650133565
0.0002162500000000003,0.4822553772055248
0.00021749999999999981,0.48955975100831417
0.00021875000000000019,0.49686412481111025
0.00021999999999999971,0.50051631171250499
0.00022125000000000009,0.5114728724166957
0.00022250000000000048,0.51512505931809716
0.00022374999999999999,0.5260816200222812
0.00022500000000000037,0.53703818072647036
0.00022624999999999989,0.54434255452926306
0.00022750000000000027,0.5479947414306594
0.00022874999999999979,0.55164692833205409
0.00023000000000000017,0.56625567593764126
0.00023124999999999968,0.57356004974043073
0.00023250000000000007,0.57356004974043406
0.00023375000000000045,0.58086442354323176
0.00023499999999999997,0.59182098424741592
0.00023625000000000035,0.59912535805020861
0.00023749999999999986,0.61008191875439777
0.00023875000000000025,0.61373410565579412
0.00023999999999999976,0.62103847945858348
0.00024125000000000014,0.62469066635998316
0.00024250000000000053,0.63564722706417398
0.00024375000000000004,0.63929941396556866
0.00024500000000000043,0.65025597466976115
0.00024624999999999994,0.65756034847255052
0.00024750000000000032,0.66486472227534332
0.00024874999999999984,0.67216909607813602
0.00025000000000000022,0.67947346988092872
0.00025124999999999974,0.68677784368371819
0.00025250000000000012,0.69773440438791057
0.0002537500000000005,0.69773440438791556
0.00025500000000000002,0.70869096509209972
0.0002562500000000004,0.7123431519934994
0.00025749999999999992,0.71964752579628877
0.0002587500000000003,0.73060408650047792
0.00025999999999999981,0.73790846030326729
0.0002612500000000002,0.74156064720466708
0.00026249999999999971,0.74886502100745644
0.0002637500000000001,0.75251720790885612
0.00026500000000000048,0.76347376861305027
0.00026624999999999999,0.77443032931723432
0.00026750000000000038,0.78173470312002713
0.00026874999999999989,0.78538689002142348
0.00027000000000000027,0.79269126382421617
0.00027124999999999979,0.79999563762700565
0.00027250000000000017,0.80730001142980168
0.00027374999999999969,0.81460438523259115
0.00027500000000000007,0.81460438523259449
0.00027625000000000045,0.82190875903539218
0.00027749999999999997,0.83286531973957634
0.00027875000000000035,0.84382188044376538
0.00027999999999999987,0.84747406734516173
0.00028125000000000025,0.85112625424655819
0.00028249999999999977,0.86573500185213692
0.00028375000000000015,0.86938718875353993
0.00028500000000000053,0.88034374945773242
0.00028625000000000005,0.88764812326052178
0.00028750000000000043,0.89495249706331625
0.00028874999999999994,0.89860468396471094
0.00029000000000000033,0.90225687086610729
0.00029124999999999984,0.90956124466890009
0.00029250000000000023,0.91686561847169279
0.00029374999999999974,0.92051780537308747
0.00029500000000000012,0.92782217917588194
0.00029625000000000051,0.92782217917588694
0.00029750000000000002,0.93877873988007099
0.0002987500000000004,0.94608311368286879
0.00029999999999999992,0.95703967438705284
0.0003012500000000003,0.96434404818984565
0.00030249999999999982,0.97164842199263501
0.0003037500000000002,0.97530060889403469
0.00030499999999999972,0.98625716959821885
0.0003062500000000001,0.99356154340101654
0.00030750000000000048,1.0008659172038095
0.00030875,1.0008659172038095
0.00031000000000000038,1.0081702910066022
0.00031124999999999989,1.0118224779079985
0.00031250000000000028,1.0191268517107912
0.00031374999999999979,1.0300834124149754
0.00031500000000000018,1.0337355993163766
0.00031624999999999969,1.0446921600205608
0.00031750000000000007,1.0446921600205656
0.00031875000000000046,1.0483443469219669
0.00031999999999999997,1.059300907626151
0.00032125000000000035,1.0702574683303405
0.00032249999999999987,1.0775618421331332
0.00032375000000000025,1.0739096552317369
0.00032499999999999977,1.084866215935921
0.00032625000000000015,1.0921705897387186
0.00032750000000000053,1.0994749635415146
0.00032875000000000005,1.106779337344304
0.00033000000000000043,1.1140837111471
0.00033124999999999995,1.1213880849498894
0.00033250000000000033,1.1250402718512857
0.00033374999999999985,1.1250402718512857
0.00033500000000000023,1.1323446456540784
0.00033624999999999974,1.143301206358263
0.00033750000000000013,1.1469533932596643
0.00033875000000000051,1.1542577670624619
0.00034000000000000002,1.165214327766646
0.00034125000000000041,1.1652143277666509
0.00034249999999999992,1.1761708884708351
0.00034375000000000031,1.1761708884708351
0.00034499999999999982,1.1834752622736278
0.0003462500000000002,1.1907796360764205
0.00034749999999999972,1.1980840098792098
0.0003487500000000001,1.2053883836820058
0.00035000000000000048,1.2126927574848001
0.00035125,1.2163449443861953
0.00035250000000000038,1.223649318188988
0.0003537499999999999,1.223649318188988
0.00035500000000000028,1.2309536919917807
0.0003562499999999998,1.2419102526959649
0.00035750000000000018,1.2419102526959698
0.00035874999999999969,1.2492146264987591
0.00036000000000000008,1.2528668134001588
0.00036125000000000046,1.2638233741043512
0.00036249999999999998,1.2711277479071406
0.00036375000000000036,1.2747799348085369
0.00036499999999999987,1.2747799348085369
0.00036625000000000026,1.2784321217099333
0.00036749999999999977,1.2930408693155124
0.00036875000000000015,1.2966930562169154
0.00037000000000000054,1.3039974300197115
0.00037125000000000005,1.3113018038225008
0.00037250000000000043,1.3186061776252951
0.00037374999999999995,1.3222583645266899
0.00037500000000000033,1.3259105514280862
0.00037624999999999985,1.3259105514280862
0.00037750000000000023,1.3332149252308789
0.00037874999999999975,1.3368671121322737
0.00038000000000000013,1.3478236728364643
0.00038125000000000051,1.3551280466392586
0.00038250000000000003,1.3587802335406534
0.00038375000000000041,1.3697367942448428
0.00038499999999999993,1.3697367942448428
0.00038625000000000031,1.3770411680476355
0.00038749999999999982,1.3770411680476355
0.00038875000000000021,1.3879977287518246
0.00038999999999999972,1.395302102554614
0.0003912500000000001,1.3989542894560136
0.00039250000000000049,1.4026064763574133
0.00039375,1.4099108501602027
0.00039500000000000039,1.4062586632588063
0.0003962499999999999,1.4208674108643917
0.00039750000000000028,1.4281717846671844
0.0003987499999999998,1.4281717846671844
0.00040000000000000018,1.4318239715685808
0.0004012499999999997,1.4427805322727654
0.00040250000000000008,1.4464327191741666
0.00040375000000000046,1.4573892798783541
0.00040499999999999998,1.4537370929769593
0.00040625000000000036,1.461041466779752
0.00040749999999999988,1.4646936536811483
0.00040875000000000026,1.471998027483941
0.00040999999999999977,1.4793024012867304
0.00041125000000000016,1.4793024012867337
0.00041249999999999967,1.4829545881881285
0.00041375000000000006,1.4866067750895264
0.00041500000000000044,1.4975633357937188
0.00041624999999999995,1.5048677095965082
0.00041750000000000034,1.5048677095965082
0.00041874999999999985,1.5085198964979045
0.00042000000000000023,1.5121720833993009
0.00042124999999999975,1.5194764572020907
0.00042250000000000013,1.5267808310048867
0.00042375000000000052,1.5304330179062864
0.00042500000000000003,1.5377373917090758
0.00042625000000000041,1.5377373917090773
0.00042749999999999993,1.5413895786104721
0.00042875000000000031,1.5486939524132648
0.00042999999999999983,1.5523461393146611
0.00043125000000000021,1.5559983262160575
0.00043249999999999972,1.5633027000188469
0.00043375000000000011,1.5669548869202465
0.00043500000000000049,1.5669548869202465
0.00043625000000000001,1.5669548869202465
0.00043750000000000039,1.5706070738216444
0.0004387499999999999,1.5742592607230392
0.00044000000000000029,1.5852158214272283
0.0004412499999999998,1.5925201952300181
0.00044250000000000018,1.5998245690328141
0.0004437499999999997,1.5998245690328141
0.00044500000000000008,1.6034767559342105
0.00044625000000000047,1.6107811297370047
0.00044749999999999998,1.6144333166383995
0.00044875000000000036,1.6180855035397959
0.00044999999999999988,1.6253898773425886
0.00045125000000000026,1.6253898773425886
