outputWave_1v4755ohm96_54nF.csv

#Digilent WaveForms Oscilloscope Acquisition
#Device Name: Discovery2
#Serial Number: SN:210321A2E2A9
#Date Time: 2018-11-27 11:16:18.471
#Sample rate: 800000Hz
#Samples: 8192
#Trigger: Source: Wavegen 1 Condition: Rising
#Channel 1: Range: 200 mV/div Offset: 0 V
#Channel 2: Range: 500 mV/div Offset: 0 V

Time (s),Channel 1 (V),Channel 2 (V)
-0.00012000000000000031,-0.28492192956950713,-0.00096457935553766411
-0.00011874999999999993,-0.28591976208412906,-0.00096457935553766411
-0.00011749999999999955,-0.28658498376054409,-0.00063150120775298097
-0.00011625000000000003,-0.28758281627516552,-0.00096457935553766411
-0.00011499999999999965,-0.28891325962799475,-0.0006315012077528295
-0.00011375000000000014,-0.28957848130440933,-0.0006315012077528295
-0.00011249999999999975,-0.29057631381903121,-0.00096457935553766411
-0.00011125000000000024,-0.29090892465723833,-0.00096457935553766411
-0.00010999999999999985,-0.29257197884827502,-0.0012976575033224987
-0.00010874999999999947,-0.29356981136289689,-0.00096457935553751265
-0.00010749999999999996,-0.29356981136289689,-0.0006315012077528295
-0.00010624999999999957,-0.29490025471572656,-0.0006315012077528295
-0.00010500000000000006,-0.29589808723034799,-0.0006315012077528295
-0.00010374999999999968,-0.29623069806855529,-0.0006315012077528295
-0.00010250000000000016,-0.29722853058317722,-0.00096457935553766411
-0.00010124999999999978,-0.2982263630977991,-0.00096457935553766411
-0.00010000000000000026,-0.2988915847742134,-0.00063150120775298097
-9.874999999999988e-05,-0.29922419561242097,-0.0002984230599679949
-9.7499999999999497e-05,-0.30022202812704307,-0.00096457935553766411
-9.6249999999999981e-05,-0.3005546389652502,-0.00096457935553766411
-9.4999999999999599e-05,-0.30155247147987235,-0.0006315012077528295
-9.3750000000000083e-05,-0.30221769315628666,-0.0006315012077528295
-9.2499999999999701e-05,-0.30221769315628666,-0.0002984230599679949
-9.1250000000000185e-05,-0.30321552567090815,-0.0002984230599679949
-8.9999999999999802e-05,-0.30354813650911588,-0.0002984230599679949
-8.8750000000000287e-05,-0.30421335818553019,-0.00063150120775267804
-8.7499999999999904e-05,-0.30487857986194505,-0.00096457935553766411
-8.6249999999999521e-05,-0.30554380153835964,-0.0006315012077528295
-8.5000000000000006e-05,-0.30554380153835964,-0.0006315012077528295
-8.3749999999999623e-05,-0.30620902321477428,-0.00096457935553766411
-8.2500000000000108e-05,-0.30620902321477428,-0.00096457935553766411
-8.1249999999999725e-05,-0.30687424489118886,-0.0006315012077528295
-8.000000000000021e-05,-0.30753946656760317,-0.0006315012077528295
-7.8749999999999827e-05,-0.30787207740581074,-0.00096457935553766411
-7.7500000000000312e-05,-0.30787207740581074,-0.00096457935553766411
-7.6249999999999929e-05,-0.30820468824401803,-0.00096457935553766411
-7.4999999999999546e-05,-0.30820468824401831,-0.00029842305996829782
-7.3750000000000031e-05,-0.30886990992043262,-0.00096457935553766411
-7.2499999999999648e-05,-0.30920252075863996,-0.0006315012077528295
-7.1250000000000133e-05,-0.30953513159684726,-0.0006315012077528295
-6.999999999999975e-05,-0.30986774243505455,-0.0006315012077528295
-6.8750000000000235e-05,-0.30986774243505455,-0.00029842305996814636
-6.7499999999999852e-05,-0.30986774243505455,-0.0006315012077528295
-6.6249999999999469e-05,-0.30986774243505472,-0.00063150120775298097
-6.4999999999999954e-05,-0.31020035327326184,-0.00096457935553766411
-6.3749999999999571e-05,-0.31020035327326184,-0.00096457935553751265
-6.2500000000000056e-05,-0.31020035327326184,-0.0006315012077528295
-6.1249999999999673e-05,-0.31053296411146913,-0.0006315012077528295
-6.0000000000000157e-05,-0.31053296411146913,-0.0006315012077528295
-5.8749999999999775e-05,-0.31053296411146913,-0.0006315012077528295
-5.7500000000000259e-05,-0.31086557494967626,-0.0006315012077528295
-5.6249999999999876e-05,-0.31053296411146913,-0.00096457935553766411
-5.4999999999999494e-05,-0.3105329641114693,-0.0002984230599679949
-5.3749999999999978e-05,-0.31086557494967643,-0.0002984230599679949
-5.2499999999999596e-05,-0.31086557494967626,-0.0002984230599679949
-5.125000000000008e-05,-0.31053296411146913,-0.0002984230599679949
-4.9999999999999697e-05,-0.30986774243505455,-0.0006315012077528295
-4.8750000000000182e-05,-0.31020035327326168,-0.0006315012077528295
-4.7499999999999799e-05,-0.31020035327326184,-0.0012976575033224987
-4.6250000000000284e-05,-0.30986774243505472,-0.0012976575033224987
-4.4999999999999901e-05,-0.30986774243505455,-0.00096457935553766411
-4.3749999999999518e-05,-0.30953513159684709,-0.00096457935553736118
-4.2500000000000003e-05,-0.30920252075863996,-0.0002984230599679949
-4.124999999999962e-05,-0.30920252075863996,-0.0002984230599679949
-4.0000000000000105e-05,-0.30920252075863996,-0.0002984230599679949
-3.8749999999999722e-05,-0.30886990992043262,-0.00096457935553766411
-3.7500000000000207e-05,-0.30787207740581118,-0.00096457935553766411
-3.6249999999999824e-05,-0.30753946656760345,-0.0006315012077528295
-3.5000000000000309e-05,-0.30787207740581057,3.4655087816536784e-05
-3.3749999999999926e-05,-0.30720685572939616,-0.0006315012077528295
-3.2499999999999543e-05,-0.3068742448911887,-0.00063150120775298097
-3.1250000000000028e-05,-0.30654163405298157,-0.00096457935553766411
-2.9999999999999645e-05,-0.30554380153835964,-0.0002984230599679949
-2.875000000000013e-05,-0.30587641237656693,-0.0006315012077528295
-2.7499999999999747e-05,-0.30554380153835964,-0.00096457935553766411
-2.6250000000000231e-05,-0.30487857986194533,-0.00096457935553766411
-2.4999999999999849e-05,-0.30421335818553047,3.465508781683971e-05
-2.3749999999999466e-05,-0.30388074734732273,-0.00063150120775267804
-2.2499999999999951e-05,-0.30288291483270124,-0.0002984230599679949
-2.1249999999999568e-05,-0.30221769315628649,-0.00063150120775267804
-2.0000000000000052e-05,-0.30188508231807937,-0.0002984230599679949
-1.874999999999967e-05,-0.30121986064166478,-0.00096457935553766411
-1.7500000000000154e-05,-0.30022202812704291,-0.0002984230599679949
-1.6249999999999772e-05,-0.29955680645062827,-0.0002984230599679949
-1.5000000000000256e-05,-0.29922419561242114,-0.00063150120775267804
-1.3749999999999873e-05,-0.29889158477421368,-0.0006315012077528295
-1.2499999999999491e-05,-0.29822636309779865,-0.00029842305996814636
-1.1249999999999975e-05,-0.29722853058317722,-0.0006315012077528295
-9.9999999999995925e-06,-0.29623069806855501,-0.00063150120775298097
-8.7500000000000772e-06,-0.2955654763921407,-0.00096457935553766411
-7.4999999999996944e-06,-0.29490025471572612,-0.00096457935553766411
-6.250000000000179e-06,-0.29390242220110419,-0.0006315012077528295
-4.9999999999997963e-06,-0.29290458968648231,-0.0002984230599679949
-3.7500000000002809e-06,-0.29190675717186088,-0.0002984230599679949
-2.4999999999998981e-06,-0.29124153549544585,-0.0002984230599679949
-1.2499999999995154e-06,-0.29057631381903076,-0.00096457935553766411
0,-0.28957848130440933,-0.00096457935553766411
1.2500000000003827e-06,-0.28824803795158016,-0.0002984230599679949
2.4999999999998981e-06,-0.28791542711337281,3.465508781683971e-05
3.7500000000002809e-06,-0.28691759459875094,3.465508781683971e-05
4.9999999999997963e-06,-0.2859197620841295,-0.00029842305996784343
6.250000000000179e-06,-0.28492192956950713,-0.0002984230599679949
7.4999999999996944e-06,-0.28359148621667857,3.4655087816688247e-05
8.7500000000000772e-06,-0.28259365370205608,3.465508781683971e-05
1.000000000000046e-05,-0.28126321034922641,-0.00029842305996814636
1.1249999999999975e-05,-0.28026537783460498,-0.0006315012077528295
1.2500000000000358e-05,-0.2792675453199831,-0.0006315012077528295
1.3749999999999873e-05,-0.27860232364356846,-0.0006315012077528295
1.5000000000000256e-05,-0.27727188029073929,-0.0002984230599679949
1.6249999999999772e-05,-0.27627404777611786,3.4655087816688247e-05
1.7500000000000154e-05,-0.27494360442328819,-0.0006315012077528295
1.8750000000000537e-05,-0.27361316107045858,-0.00063150120775298097
2.0000000000000052e-05,-0.27261532855583709,-0.00096457935553766411
2.1250000000000435e-05,-0.27095227436480002,3.4655087816688247e-05
2.2499999999999951e-05,-0.2696218310119714,-0.0002984230599679949
2.3750000000000333e-05,-0.26829138765914223,-0.0006315012077528295
2.4999999999999849e-05,-0.26729355514452036,-0.0002984230599679949
2.6250000000000231e-05,-0.26596311179169113,3.465508781683971e-05
2.7499999999999747e-05,-0.26529789011527682,-0.00063150120775252658
2.875000000000013e-05,-0.26396744676244732,-0.0006315012077528295
3.0000000000000512e-05,-0.26230439257141025,-0.00029842305996784343
3.1250000000000028e-05,-0.26097394921858164,3.465508781683971e-05
3.2500000000000411e-05,-0.25964350586575169,-0.00029842305996829782
3.3749999999999926e-05,-0.25798045167471595,-0.00096457935553766411
3.5000000000000309e-05,-0.25665000832188678,-0.0006315012077528295
3.6249999999999824e-05,-0.25498695413085026,-0.0006315012077528295
3.7500000000000207e-05,-0.2533238999398138,-0.0006315012077528295
3.8749999999999722e-05,-0.25232606742519231,-0.00029842305996814636
4.0000000000000105e-05,-0.25066301323415541,-0.0002984230599679949
4.1250000000000488e-05,-0.2486673482049109,3.4655087816688247e-05
4.2500000000000003e-05,-0.24700429401387514,-0.0002984230599679949
4.3750000000000386e-05,-0.24567385066104597,-0.0002984230599679949
4.4999999999999901e-05,-0.24434340730821674,-0.0006315012077528295
4.6250000000000284e-05,-0.24301296395538757,-0.0002984230599679949
4.7499999999999799e-05,-0.24068468808793753,-0.0002984230599679949
4.8750000000000182e-05,-0.24001946641152189,-0.0002984230599679949
4.9999999999999697e-05,-0.23802380138227899,-0.00063150120775267804
5.125000000000008e-05,-0.23636074719124156,-0.0006315012077528295
5.2500000000000463e-05,-0.23469769300020435,-0.0002984230599679949
5.3749999999999978e-05,-0.23303463880916858,-0.0002984230599679949
5.5000000000000361e-05,-0.23170419545633941,-0.0006315012077528295
5.6249999999999876e-05,-0.22937591958888831,-0.0006315012077528295
5.7500000000000259e-05,-0.22771286539785185,3.465508781683971e-05
5.8749999999999775e-05,-0.22604981120681608,3.465508781683971e-05
6.0000000000000157e-05,-0.22438675701577881,3.465508781683971e-05
6.1249999999999673e-05,-0.2227237028247431,3.465508781683971e-05
6.2500000000000056e-05,-0.22072803779549854,-0.0002984230599679949
6.3750000000000438e-05,-0.21906498360446147,-0.00029842305996829782
6.4999999999999954e-05,-0.21773454025163286,-0.00096457935553766411
6.6250000000000336e-05,-0.21540626438418176,-0.0006315012077528295
6.7499999999999852e-05,-0.21374321019314529,-0.0002984230599679949
6.8750000000000235e-05,-0.21208015600210878,-0.0006315012077528295
6.999999999999975e-05,-0.20975188013465873,-0.00029842305996814636
7.1250000000000133e-05,-0.20742360426720663,-0.0002984230599679949
7.2500000000000515e-05,-0.20609316091437666,-0.0002984230599679949
7.3750000000000031e-05,-0.20443010672334094,-0.0002984230599679949
7.5000000000000414e-05,-0.2021018308558894,-0.0002984230599679949
7.6249999999999929e-05,-0.20110399834126796,-0.0002984230599679949
7.7500000000000312e-05,-0.19877572247381686,-0.00096457935553766411
7.8749999999999827e-05,-0.19678005744457305,-0.00096457935553766411
8.000000000000021e-05,-0.19478439241532924,-0.0002984230599679949
8.1249999999999725e-05,-0.19245611654787925,-0.00063150120775267804
8.2500000000000108e-05,-0.19046045151863439,-0.0002984230599679949
8.3750000000000491e-05,-0.18846478648938966,-0.00063150120775267804
8.5000000000000006e-05,-0.18646912146014682,-0.0002984230599679949
8.6250000000000389e-05,-0.1844734564309021,-0.0002984230599679949
8.7499999999999904e-05,-0.18247779140165921,-0.0002984230599679949
8.8750000000000287e-05,-0.18014951553420816,-0.0002984230599679949
8.9999999999999802e-05,-0.17815385050496527,-0.0002984230599679949
9.1250000000000185e-05,-0.17649079631392783,-0.0006315012077528295
9.2499999999999701e-05,-0.174495131284685,-0.0006315012077528295
9.3750000000000083e-05,-0.17216685541723298,-0.0002984230599679949
9.5000000000000466e-05,-0.17017119038798781,-0.0002984230599679949
9.6249999999999981e-05,-0.16717769284412348,-0.0002984230599679949
9.7500000000000364e-05,-0.16551463865308702,-0.0006315012077528295
9.874999999999988e-05,-0.16318636278563592,-0.0002984230599679949
0.00010000000000000026,-0.16119069775639211,-0.0002984230599679949
0.00010124999999999978,-0.15886242188894206,-0.0002984230599679949
0.00010250000000000016,-0.15653414602148996,-0.0002984230599679949
0.00010374999999999968,-0.15487109183045419,-0.00063150120775267804
0.00010500000000000006,-0.15254281596300234,-0.0002984230599679949
0.00010625000000000044,-0.15021454009555008,-0.00063150120775298097
0.00010749999999999996,-0.1475536533898929,-0.00096457935553766411
0.00010875000000000034,-0.14555798836064909,-0.0006315012077528295
0.00010999999999999985,-0.14322971249319799,3.465508781683971e-05
0.00011125000000000024,-0.14123404746395424,-0.0002984230599679949
0.00011249999999999975,-0.13890577159650419,-0.00063150120775267804
0.00011375000000000014,-0.13624488489084474,-0.0002984230599679949
0.00011500000000000052,-0.13424921986159971,-0.00063150120775267804
0.00011625000000000003,-0.13158833315594254,-0.0002984230599679949
0.00011750000000000042,-0.12926005728849027,-0.00096457935553766411
0.00011874999999999993,-0.1265991705828331,-0.00096457935553766411
0.00012000000000000031,-0.124270894715382,-0.0006315012077528295
0.00012124999999999983,-0.1222752296861382,-0.0002984230599679949
0.00012250000000000021,-0.11994695381868711,-0.0006315012077528295
0.00012374999999999973,-0.11761867795123708,3.4655087816536784e-05
0.00012500000000000011,-0.11495779124557763,-0.0002984230599679949
0.00012625000000000049,-0.11262951537812564,-0.00029842305996814636
0.00012750000000000001,-0.11063385034888275,-0.0006315012077528295
0.00012875000000000039,-0.10797296364322331,-0.0002984230599679949
0.00012999999999999991,-0.10564468777577328,-0.0002984230599679949
0.00013125000000000029,-0.10265119023190759,-0.0002984230599679949
0.00013249999999999981,-0.10098813604087184,-0.0002984230599679949
0.00013375000000000019,-0.09832724933521271,-0.0002984230599679949
0.0001349999999999997,-0.095666362629555524,-0.00063150120775267804
0.00013625000000000009,-0.093338086762103228,-0.0006315012077528295
0.00013750000000000047,-0.091342421732858073,-0.0006315012077528295
0.00013874999999999998,-0.088348924188993747,-0.0006315012077528295
0.00014000000000000037,-0.085688037483335366,3.465508781683971e-05
0.00014124999999999988,-0.083359761615884279,-0.0002984230599679949
0.00014250000000000027,-0.081031485748433191,-0.0002984230599679949
0.00014374999999999978,-0.077372766528154571,-0.0002984230599679949
0.00014500000000000016,-0.076042323175323709,-0.0002984230599679949
0.00014624999999999968,-0.073048825631459383,-0.0002984230599679949
0.00014750000000000006,-0.070720549764006935,-0.0006315012077528295
0.00014875000000000044,-0.068724884734761932,-0.0002984230599679949
0.00014999999999999996,-0.066063998029104759,-0.0002984230599679949
0.00015125000000000034,-0.063403111323446365,-0.0002984230599679949
0.00015249999999999986,-0.060742224617787978,-0.0002984230599679949
0.00015375000000000024,-0.05841394875033689,-0.0002984230599679949
0.00015499999999999976,-0.056085672882886864,-0.00063150120775267804
0.00015625000000000014,-0.053424786177227408,-0.0006315012077528295
0.00015750000000000052,-0.051429121147982412,-0.00096457935553751265
0.00015875000000000004,-0.048768234442325233,-0.0006315012077528295
0.00016000000000000042,-0.045774736898458186,-0.0002984230599679949
0.00016124999999999994,-0.04278123935459386,-0.0002984230599679949
0.00016250000000000032,-0.040452963487142772,3.465508781683971e-05
0.00016374999999999983,-0.037459465943277086,3.465508781683971e-05
0.00016500000000000022,-0.035131190075825991,-0.00096457935553766411
0.00016624999999999973,-0.032137692531961665,3.4655087816385212e-05
0.00016750000000000011,-0.029476805826301921,-0.0002984230599679949
0.0001687500000000005,-0.027481140797057071,-0.00063150120775267804
0.00017000000000000001,-0.025152864929607038,-0.0002984230599679949
0.00017125000000000039,-0.022159367385740293,-0.00063150120775267804
0.00017249999999999991,-0.019831091518290263,-0.0002984230599679949
0.00017375000000000029,-0.017502815650839172,-0.0006315012077528295
0.00017499999999999981,-0.014509318106974849,-0.0006315012077528295
0.00017625000000000019,-0.012181042239522398,-0.0002984230599679949
0.00017749999999999971,-0.0095201555338652183,-0.0002984230599679949
0.00017875000000000009,-0.0065266579899983228,-0.0006315012077528295
0.00018000000000000047,-0.0035331604461315783,-0.00063150120775298097
0.00018124999999999999,-0.0012048845786815474,-0.00096457935553766411
0.00018250000000000037,0.0011233912887695422,-0.00096457935553766411
0.00018374999999999989,0.0034516671562206313,-0.0006315012077528295
0.00018500000000000027,0.0067777755382936161,-0.0006315012077528295
0.00018624999999999978,0.0091060514057436474,-0.00029842305996814636
0.00018750000000000017,0.011766938111403094,-0.0002984230599679949
0.00018874999999999968,0.013762603140645977,-0.00063150120775267804
0.00019000000000000006,0.016756100684512571,-0.00096457935553766411
0.00019125000000000045,0.019749598228379316,-0.00063150120775298097
0.00019249999999999996,0.022077874095829349,-0.00096457935553766411
0.00019375000000000035,0.024738760801487736,-0.0016307356511073333
0.00019499999999999986,0.027067036668938824,-0.0012976575033224987
0.00019625000000000024,0.030393145051011809,-0.0006315012077528295
0.00019749999999999976,0.033054031756668989,-0.0006315012077528295
0.00019875000000000014,0.035714918462328583,-0.0006315012077528295
0.00020000000000000052,0.038043194329781038,-0.0012976575033224987
0.00020125000000000004,0.041036691873645365,-0.0012976575033224987
0.00020250000000000042,0.043697578579304813,-0.00096457935553766411
0.00020374999999999994,0.046025854446754839,-0.00096457935553766411
0.00020500000000000032,0.048354130314205927,-0.00096457935553766411
0.00020624999999999984,0.051015017019864314,-0.0002984230599679949
0.00020750000000000022,0.054008514563730001,-0.0002984230599679949
0.00020874999999999973,0.05666940126938718,-0.00096457935553736118
0.00021000000000000012,0.058997677136839483,-0.00096457935553766411
0.0002112500000000005,0.061658563842499077,-0.00096457935553766411
0.00021250000000000002,0.064319450548156257,-0.00096457935553766411
0.0002137500000000004,0.066980337253815858,-0.00063150120775298097
0.00021499999999999991,0.069641223959473031,-0.00096457935553766411
0.0002162500000000003,0.072302110665131425,-0.00096457935553766411
0.00021749999999999981,0.074297775694374305,-0.00063150120775298097
0.00021875000000000019,0.076958662400033601,-0.0012976575033224987
0.00021999999999999971,0.079619549105690773,-0.00096457935553781557
0.00022125000000000009,0.082613046649557667,-0.0012976575033224987
0.00022250000000000048,0.085273933355217116,-0.0012976575033224987
0.00022374999999999999,0.087602209222667149,-0.0012976575033224987
0.00022500000000000037,0.090263095928325543,-0.0016307356511073333
0.00022624999999999989,0.092591371795776631,-0.0006315012077528295
0.00022750000000000027,0.095252258501435011,-0.00096457935553766411
0.00022874999999999979,0.097913145207092198,-0.0012976575033223471
0.00023000000000000017,0.10024142107454449,-0.00096457935553766411
0.00023124999999999968,0.10290230778020168,-0.00096457935553766411
0.00023250000000000007,0.10556319448586127,-0.00096457935553766411
0.00023375000000000045,0.10822408119152087,-0.00063150120775313243
0.00023499999999999997,0.11088496789717804,-0.0012976575033224987
0.00023625000000000035,0.11288063292642184,-0.0012976575033224987
0.00023749999999999986,0.11587413047028752,-0.0012976575033224987
0.00023875000000000025,0.11853501717594592,-0.00096457935553766411
0.00023999999999999976,0.12086329304339595,-0.00096457935553766411
0.00024125000000000014,0.12285895807264079,-0.0006315012077528295
0.00024250000000000053,0.1251872339400934,-0.00063150120775298097
